Segment;Instrument;Symbol;Option Type;Stricke Price;Expiry Date;Price;Qty;Disclosed Qty;Bye/Sell;Order Order;Triger Price;CLI/PRO;Product Type;Validity;Client Code;Remark;Validity Date;Participant Code;Validity Time;Market Participant
NSE;EQ;AMARAJABAT;NA;NA;NA;1017.20;2.0;0.0;BUY;LIMIT;NA;CLI;CNC;DAY                                                                                                 ;11;NA;;;NA;NA
BSE;EQ;BAJAJELEC;NA;NA;NA;270.40;2.0;0.0;BUY;LIMIT;NA;CLI;CNC;DAY                                                                                                 ;11;NA;;;NA;NA
BSE;EQ;INOXWIND;NA;NA;NA;205.50;12.0;0.0;BUY;LIMIT;NA;CLI;CNC;DAY                                                                                                 ;11;NA;;;NA;NA
BSE;EQ;EXIDEIND;NA;NA;NA;192.00;6.0;0.0;BUY;LIMIT;NA;CLI;CNC;DAY                                                                                                 ;11;NA;;;NA;NA
BSE;EQ;GENUSPOWER;NA;NA;NA;43.30;24.0;0.0;BUY;LIMIT;NA;CLI;CNC;DAY                                                                                                 ;11;NA;;;NA;NA
NSE;EQ;MARUTI;NA;NA;NA;5568.90;1.0;0.0;SELL;LIMIT;NA;CLI;CNC;DAY                                                                                                 ;11;NA;;;NA;NA
BSE;EQ;PVR;NA;NA;NA;1208.80;4.0;0.0;SELL;LIMIT;NA;CLI;CNC;DAY                                                                                                 ;11;NA;;;NA;NA
NSE;EQ;ESCORTS;NA;NA;NA;375.10;15.0;0.0;SELL;LIMIT;NA;CLI;CNC;DAY                                                                                                 ;11;NA;;;NA;NA
BSE;EQ;VRLLOG;NA;NA;NA;296.70;18.0;0.0;SELL;LIMIT;NA;CLI;CNC;DAY                                                                                                 ;11;NA;;;NA;NA
BSE;EQ;INOXLEISUR;NA;NA;NA;267.40;20.0;0.0;SELL;LIMIT;NA;CLI;CNC;DAY                                                                                                 ;11;NA;;;NA;NA
NSE;EQ;TCI;NA;NA;NA;193.45;26.0;0.0;SELL;LIMIT;NA;CLI;CNC;DAY                                                                                                 ;11;NA;;;NA;NA
NSE;EQ;ALLCARGO;NA;NA;NA;191.10;28.0;0.0;SELL;LIMIT;NA;CLI;CNC;DAY                                                                                                 ;11;NA;;;NA;NA
NSE;EQ;TATACOFFEE;NA;NA;NA;125.65;1.0;0.0;BUY;LIMIT;NA;CLI;CNC;DAY                                                                                                 ;17;NA;;;NA;NA
BSE;EQ;SIYSIL;NA;NA;NA;1315.80;2.0;0.0;SELL;LIMIT;NA;CLI;CNC;DAY                                                                                                 ;17;NA;;;NA;NA
BSE;EQ;VTL;NA;NA;NA;1071.05;2.0;0.0;SELL;LIMIT;NA;CLI;CNC;DAY                                                                                                 ;17;NA;;;NA;NA
BSE;EQ;AMBIKCO;NA;NA;NA;813.85;2.0;0.0;SELL;LIMIT;NA;CLI;CNC;DAY                                                                                                 ;17;NA;;;NA;NA
BSE;EQ;ICIL;NA;NA;NA;772.35;2.0;0.0;SELL;LIMIT;NA;CLI;CNC;DAY                                                                                                 ;17;NA;;;NA;NA
BSE;EQ;GARWALLROP;NA;NA;NA;517.80;4.0;0.0;SELL;LIMIT;NA;CLI;CNC;DAY                                                                                                 ;17;NA;;;NA;NA
BSE;EQ;MONTECARLO;NA;NA;NA;442.45;4.0;0.0;SELL;LIMIT;NA;CLI;CNC;DAY                                                                                                 ;17;NA;;;NA;NA
BSE;EQ;SARLAPOLY;NA;NA;NA;73.15;40.0;0.0;SELL;LIMIT;NA;CLI;CNC;DAY                                                                                                 ;17;NA;;;NA;NA
BSE;EQ;MARUTI;NA;NA;NA;5568.90;1.0;0.0;SELL;LIMIT;NA;CLI;CNC;DAY                                                                                                 ;19;NA;;;NA;NA
BSE;EQ;M&M;NA;NA;NA;1379.85;2.0;0.0;SELL;LIMIT;NA;CLI;CNC;DAY                                                                                                 ;19;NA;;;NA;NA
BSE;EQ;TATAMOTORS;NA;NA;NA;535.55;11.0;0.0;SELL;LIMIT;NA;CLI;CNC;DAY                                                                                                 ;19;NA;;;NA;NA
BSE;EQ;ASHOKLEY;NA;NA;NA;81.75;11.0;0.0;SELL;LIMIT;NA;CLI;CNC;DAY                                                                                                 ;19;NA;;;NA;NA
BSE;EQ;NESCO;NA;NA;NA;1750.65;1.0;0.0;BUY;LIMIT;NA;CLI;CNC;DAY                                                                                                 ;38;NA;;;NA;NA
BSE;EQ;ZYDUSWELL;NA;NA;NA;889.45;5.0;0.0;BUY;LIMIT;NA;CLI;CNC;DAY                                                                                                 ;38;NA;;;NA;NA
BSE;EQ;KIRLOSENG;NA;NA;NA;330.30;24.0;0.0;BUY;LIMIT;NA;CLI;CNC;DAY                                                                                                 ;38;NA;;;NA;NA
BSE;EQ;PTC;NA;NA;NA;78.70;66.0;0.0;BUY;LIMIT;NA;CLI;CNC;DAY                                                                                                 ;38;NA;;;NA;NA
BSE;EQ;NESCO;NA;NA;NA;1750.65;1.0;0.0;BUY;LIMIT;NA;CLI;CNC;DAY                                                                                                 ;11;NA;;;NA;NA
BSE;EQ;ZYDUSWELL;NA;NA;NA;889.45;5.0;0.0;BUY;LIMIT;NA;CLI;CNC;DAY                                                                                                 ;11;NA;;;NA;NA
BSE;EQ;KIRLOSENG;NA;NA;NA;330.30;24.0;0.0;BUY;LIMIT;NA;CLI;CNC;DAY                                                                                                 ;11;NA;;;NA;NA
BSE;EQ;PTC;NA;NA;NA;78.70;66.0;0.0;BUY;LIMIT;NA;CLI;CNC;DAY                                                                                                 ;11;NA;;;NA;NA
