Segment;Instrument;Symbol;Option Type;Stricke Price;Expiry Date;Price;Qty;Disclosed Qty;Bye/Sell;Order Order;Triger Price;CLI/PRO;Product Type;Validity;Client Code;Remark;Validity Date;Participant Code;Validity Time;Market Participant
BSE;EQ;DWARKESH;NA;NA;NA;274.35;1.0;0.0;BUY;LIMIT;NA;CLI;CNC;DAY                                                                                                 ;51;NA;;;NA;NA
BSE;EQ;DHAMPURSUG;NA;NA;NA;133.50;1.0;0.0;BUY;LIMIT;NA;CLI;CNC;DAY                                                                                                 ;51;NA;;;NA;NA
BSE;EQ;DALMIASUG;NA;NA;NA;117.05;3.0;0.0;BUY;LIMIT;NA;CLI;CNC;DAY                                                                                                 ;51;NA;;;NA;NA
BSE;EQ;BALRAMCHIN;NA;NA;NA;114.95;6.0;0.0;BUY;LIMIT;NA;CLI;CNC;DAY                                                                                                 ;51;NA;;;NA;NA
BSE;EQ;OUDHSUG;NA;NA;NA;114.10;0.0;0.0;BUY;LIMIT;NA;CLI;CNC;DAY                                                                                                 ;51;NA;;;NA;NA
BSE;EQ;MAWANASUG;NA;NA;NA;57.80;0.0;0.0;BUY;LIMIT;NA;CLI;CNC;DAY                                                                                                 ;51;NA;;;NA;NA
BSE;EQ;DWARKESH;NA;NA;NA;274.35;1.0;0.0;BUY;LIMIT;NA;CLI;CNC;DAY                                                                                                 ;52;NA;;;NA;NA
BSE;EQ;DHAMPURSUG;NA;NA;NA;133.50;1.0;0.0;BUY;LIMIT;NA;CLI;CNC;DAY                                                                                                 ;52;NA;;;NA;NA
BSE;EQ;DALMIASUG;NA;NA;NA;117.05;3.0;0.0;BUY;LIMIT;NA;CLI;CNC;DAY                                                                                                 ;52;NA;;;NA;NA
BSE;EQ;BALRAMCHIN;NA;NA;NA;114.95;6.0;0.0;BUY;LIMIT;NA;CLI;CNC;DAY                                                                                                 ;52;NA;;;NA;NA
BSE;EQ;OUDHSUG;NA;NA;NA;114.10;0.0;0.0;BUY;LIMIT;NA;CLI;CNC;DAY                                                                                                 ;52;NA;;;NA;NA
BSE;EQ;MAWANASUG;NA;NA;NA;57.80;0.0;0.0;BUY;LIMIT;NA;CLI;CNC;DAY                                                                                                 ;52;NA;;;NA;NA
