Segment;Instrument;Symbol;Option Type;Stricke Price;Expiry Date;Price;Qty;Disclosed Qty;Bye/Sell;Order Order;Triger Price;CLI/PRO;Product Type;Validity;Client Code;Remark;Validity Date;Participant Code;Validity Time;Market Participant
BSE;EQ;DWARKESH;NA;NA;NA;260.55;155.0;0.0;BUY;LIMIT;NA;CLI;CNC;DAY                                                                                                 ;34;NA;;;NA;NA
BSE;EQ;DHAMPURSUG;NA;NA;NA;130.45;155.0;0.0;BUY;LIMIT;NA;CLI;CNC;DAY                                                                                                 ;34;NA;;;NA;NA
BSE;EQ;BALRAMCHIN;NA;NA;NA;112.30;930.0;0.0;BUY;LIMIT;NA;CLI;CNC;DAY                                                                                                 ;34;NA;;;NA;NA
BSE;EQ;OUDHSUG;NA;NA;NA;111.30;0.0;0.0;BUY;LIMIT;NA;CLI;CNC;DAY                                                                                                 ;34;NA;;;NA;NA
BSE;EQ;DALMIASUG;NA;NA;NA;110.60;465.0;0.0;BUY;LIMIT;NA;CLI;CNC;DAY                                                                                                 ;34;NA;;;NA;NA
BSE;EQ;MAWANASUG;NA;NA;NA;56.45;0.0;0.0;BUY;LIMIT;NA;CLI;CNC;DAY                                                                                                 ;34;NA;;;NA;NA
BSE;EQ;DWARKESH;NA;NA;NA;260.55;1.0;0.0;BUY;LIMIT;NA;CLI;CNC;DAY                                                                                                 ;19;NA;;;NA;NA
BSE;EQ;DHAMPURSUG;NA;NA;NA;130.45;1.0;0.0;BUY;LIMIT;NA;CLI;CNC;DAY                                                                                                 ;19;NA;;;NA;NA
BSE;EQ;BALRAMCHIN;NA;NA;NA;112.30;6.0;0.0;BUY;LIMIT;NA;CLI;CNC;DAY                                                                                                 ;19;NA;;;NA;NA
BSE;EQ;OUDHSUG;NA;NA;NA;111.30;0.0;0.0;BUY;LIMIT;NA;CLI;CNC;DAY                                                                                                 ;19;NA;;;NA;NA
BSE;EQ;DALMIASUG;NA;NA;NA;110.60;3.0;0.0;BUY;LIMIT;NA;CLI;CNC;DAY                                                                                                 ;19;NA;;;NA;NA
BSE;EQ;MAWANASUG;NA;NA;NA;56.45;0.0;0.0;BUY;LIMIT;NA;CLI;CNC;DAY                                                                                                 ;19;NA;;;NA;NA
