Segment;Instrument;Symbol;Option Type;Stricke Price;Expiry Date;Price;Qty;Disclosed Qty;Bye/Sell;Order Order;Triger Price;CLI/PRO;Product Type;Validity;Client Code;Remark;Validity Date;Participant Code;Validity Time;Market Participant
BSE;EQ;POKARNA;NA;NA;NA;779.95;1.0;0.0;BUY;LIMIT;NA;CLI;CNC;DAY                                                                                                 ;40;NA;;;NA;NA
BSE;EQ;DWARKESH;NA;NA;NA;257.05;2.0;0.0;BUY;LIMIT;NA;CLI;CNC;DAY                                                                                                 ;40;NA;;;NA;NA
BSE;EQ;JUBLINDS;NA;NA;NA;220.30;7.0;0.0;BUY;LIMIT;NA;CLI;CNC;DAY                                                                                                 ;40;NA;;;NA;NA
BSE;EQ;MANGALAM;NA;NA;NA;170.15;1.0;0.0;BUY;LIMIT;NA;CLI;CNC;DAY                                                                                                 ;40;NA;;;NA;NA
NSE;EQ;STCINDIA;NA;NA;NA;129.80;8.0;0.0;BUY;LIMIT;NA;CLI;CNC;DAY                                                                                                 ;40;NA;;;NA;NA
BSE;EQ;PINCON;NA;NA;NA;73.50;5.0;0.0;BUY;LIMIT;NA;CLI;CNC;DAY                                                                                                 ;40;NA;;;NA;NA
BSE;EQ;NITINSPIN;NA;NA;NA;70.35;4.0;0.0;BUY;LIMIT;NA;CLI;CNC;DAY                                                                                                 ;40;NA;;;NA;NA
BSE;EQ;EMAMIINFRA;NA;NA;NA;60.65;5.0;0.0;BUY;LIMIT;NA;CLI;CNC;DAY                                                                                                 ;40;NA;;;NA;NA
BSE;EQ;MARALOVER;NA;NA;NA;28.60;11.0;0.0;BUY;LIMIT;NA;CLI;CNC;DAY                                                                                                 ;40;NA;;;NA;NA
BSE;EQ;IBVENTURES;NA;NA;NA;27.35;9.0;0.0;BUY;LIMIT;NA;CLI;CNC;DAY                                                                                                 ;40;NA;;;NA;NA
BSE;EQ;KMSUGAR;NA;NA;NA;17.54;37.0;0.0;BUY;LIMIT;NA;CLI;CNC;DAY                                                                                                 ;40;NA;;;NA;NA
BSE;EQ;MAWANASUG;NA;NA;NA;58.40;0.0;0.0;BUY;LIMIT;NA;CLI;CNC;DAY                                                                                                 ;40;NA;;;NA;NA
BSE;EQ;OUDHSUG;NA;NA;NA;107.25;0.0;0.0;BUY;LIMIT;NA;CLI;CNC;DAY                                                                                                 ;40;NA;;;NA;NA
BSE;EQ;BALRAMCHIN;NA;NA;NA;110.25;6.0;0.0;BUY;LIMIT;NA;CLI;CNC;DAY                                                                                                 ;40;NA;;;NA;NA
BSE;EQ;DALMIASUG;NA;NA;NA;118.50;3.0;0.0;BUY;LIMIT;NA;CLI;CNC;DAY                                                                                                 ;40;NA;;;NA;NA
BSE;EQ;DHAMPURSUG;NA;NA;NA;130.75;1.0;0.0;BUY;LIMIT;NA;CLI;CNC;DAY                                                                                                 ;40;NA;;;NA;NA
BSE;EQ;DWARKESH;NA;NA;NA;257.05;1.0;0.0;BUY;LIMIT;NA;CLI;CNC;DAY                                                                                                 ;40;NA;;;NA;NA
