Segment;Instrument;Symbol;Option Type;Stricke Price;Expiry Date;Price;Qty;Disclosed Qty;Bye/Sell;Order Order;Triger Price;CLI/PRO;Product Type;Validity;Client Code;Remark;Validity Date;Participant Code;Validity Time;Market Participant
BSE;EQ;SANOFI;NA;NA;NA;4257.15;1.0;0.0;BUY;LIMIT;NA;CLI;CNC;DAY                                                                                                 ;19;NA;;;NA;NA
BSE;EQ;HITACHIHOM;NA;NA;NA;1571.10;2.0;0.0;BUY;LIMIT;NA;CLI;CNC;DAY                                                                                                 ;19;NA;;;NA;NA
BSE;EQ;LALPATHLAB;NA;NA;NA;1170.25;20.0;0.0;BUY;LIMIT;NA;CLI;CNC;DAY                                                                                                 ;19;NA;;;NA;NA
BSE;EQ;SYMPHONY;NA;NA;NA;1144.90;9.0;0.0;BUY;LIMIT;NA;CLI;CNC;DAY                                                                                                 ;19;NA;;;NA;NA
BSE;EQ;APLLTD;NA;NA;NA;684.65;18.0;0.0;BUY;LIMIT;NA;CLI;CNC;DAY                                                                                                 ;19;NA;;;NA;NA
BSE;EQ;DBCORP;NA;NA;NA;398.70;16.0;0.0;BUY;LIMIT;NA;CLI;CNC;DAY                                                                                                 ;19;NA;;;NA;NA
BSE;EQ;VGUARD;NA;NA;NA;187.40;32.0;0.0;BUY;LIMIT;NA;CLI;CNC;DAY                                                                                                 ;19;NA;;;NA;NA
NSE;EQ;TATACOFFEE;NA;NA;NA;125.70;57.0;0.0;BUY;LIMIT;NA;CLI;CNC;DAY                                                                                                 ;19;NA;;;NA;NA
BSE;EQ;SANOFI;NA;NA;NA;4257.15;1.0;0.0;BUY;LIMIT;NA;CLI;CNC;DAY                                                                                                 ;19;NA;;;NA;NA
BSE;EQ;HITACHIHOM;NA;NA;NA;1571.10;2.0;0.0;BUY;LIMIT;NA;CLI;CNC;DAY                                                                                                 ;19;NA;;;NA;NA
BSE;EQ;LALPATHLAB;NA;NA;NA;1170.25;20.0;0.0;BUY;LIMIT;NA;CLI;CNC;DAY                                                                                                 ;19;NA;;;NA;NA
BSE;EQ;SYMPHONY;NA;NA;NA;1144.90;9.0;0.0;BUY;LIMIT;NA;CLI;CNC;DAY                                                                                                 ;19;NA;;;NA;NA
BSE;EQ;APLLTD;NA;NA;NA;684.65;18.0;0.0;BUY;LIMIT;NA;CLI;CNC;DAY                                                                                                 ;19;NA;;;NA;NA
BSE;EQ;DBCORP;NA;NA;NA;398.70;16.0;0.0;BUY;LIMIT;NA;CLI;CNC;DAY                                                                                                 ;19;NA;;;NA;NA
BSE;EQ;VGUARD;NA;NA;NA;187.40;32.0;0.0;BUY;LIMIT;NA;CLI;CNC;DAY                                                                                                 ;19;NA;;;NA;NA
NSE;EQ;TATACOFFEE;NA;NA;NA;125.70;57.0;0.0;BUY;LIMIT;NA;CLI;CNC;DAY                                                                                                 ;19;NA;;;NA;NA
BSE;EQ;NESCO;NA;NA;NA;1750.65;1.0;0.0;BUY;LIMIT;NA;CLI;CNC;DAY                                                                                                 ;11;NA;;;NA;NA
BSE;EQ;ZYDUSWELL;NA;NA;NA;889.45;5.0;0.0;BUY;LIMIT;NA;CLI;CNC;DAY                                                                                                 ;11;NA;;;NA;NA
BSE;EQ;KIRLOSENG;NA;NA;NA;330.30;24.0;0.0;BUY;LIMIT;NA;CLI;CNC;DAY                                                                                                 ;11;NA;;;NA;NA
BSE;EQ;PTC;NA;NA;NA;78.70;66.0;0.0;BUY;LIMIT;NA;CLI;CNC;DAY                                                                                                 ;11;NA;;;NA;NA
BSE;EQ;NESCO;NA;NA;NA;1750.65;1.0;0.0;BUY;LIMIT;NA;CLI;CNC;DAY                                                                                                 ;11;NA;;;NA;NA
BSE;EQ;ZYDUSWELL;NA;NA;NA;889.45;5.0;0.0;BUY;LIMIT;NA;CLI;CNC;DAY                                                                                                 ;11;NA;;;NA;NA
BSE;EQ;KIRLOSENG;NA;NA;NA;330.30;24.0;0.0;BUY;LIMIT;NA;CLI;CNC;DAY                                                                                                 ;11;NA;;;NA;NA
BSE;EQ;PTC;NA;NA;NA;78.70;66.0;0.0;BUY;LIMIT;NA;CLI;CNC;DAY                                                                                                 ;11;NA;;;NA;NA
BSE;EQ;NESCO;NA;NA;NA;1750.65;1.0;0.0;BUY;LIMIT;NA;CLI;CNC;DAY                                                                                                 ;17;NA;;;NA;NA
BSE;EQ;ZYDUSWELL;NA;NA;NA;889.45;5.0;0.0;BUY;LIMIT;NA;CLI;CNC;DAY                                                                                                 ;17;NA;;;NA;NA
BSE;EQ;KIRLOSENG;NA;NA;NA;330.30;24.0;0.0;BUY;LIMIT;NA;CLI;CNC;DAY                                                                                                 ;17;NA;;;NA;NA
BSE;EQ;PTC;NA;NA;NA;78.70;66.0;0.0;BUY;LIMIT;NA;CLI;CNC;DAY                                                                                                 ;17;NA;;;NA;NA
