Segment;Instrument;Symbol;Option Type;Stricke Price;Expiry Date;Price;Qty;Disclosed Qty;Bye/Sell;Order Order;Triger Price;CLI/PRO;Product Type;Validity;Client Code;Remark;Validity Date;Participant Code;Validity Time;Market Participant
NSE;EQ;SAIL;NA;NA;NA;49.55;59.0;0.0;BUY;LIMIT;NA;CLI;CNC;DAY                                                                                                 ;132;NA;;;NA;NA
BSE;EQ;NMDC;NA;NA;NA;116.50;31.0;0.0;BUY;LIMIT;NA;CLI;CNC;DAY                                                                                                 ;132;NA;;;NA;NA
BSE;EQ;MAITHANALL;NA;NA;NA;239.60;15.0;0.0;BUY;LIMIT;NA;CLI;CNC;DAY                                                                                                 ;132;NA;;;NA;NA
BSE;EQ;KSL;NA;NA;NA;291.65;12.0;0.0;BUY;LIMIT;NA;CLI;CNC;DAY                                                                                                 ;132;NA;;;NA;NA
BSE;EQ;JSWSTEEL;NA;NA;NA;1656.35;1.0;0.0;BUY;LIMIT;NA;CLI;CNC;DAY                                                                                                 ;132;NA;;;NA;NA
NSE;EQ;SUNILHITEC;NA;NA;NA;11.15;64.0;0.0;BUY;LIMIT;NA;CLI;CNC;DAY                                                                                                 ;134;NA;;;NA;NA
NSE;EQ;RUCHIRA;NA;NA;NA;104.05;6.0;0.0;BUY;LIMIT;NA;CLI;CNC;DAY                                                                                                 ;134;NA;;;NA;NA
NSE;EQ;PRECWIRE;NA;NA;NA;108.35;6.0;0.0;BUY;LIMIT;NA;CLI;CNC;DAY                                                                                                 ;134;NA;;;NA;NA
NSE;EQ;SARDAEN;NA;NA;NA;231.30;3.0;0.0;BUY;LIMIT;NA;CLI;CNC;DAY                                                                                                 ;134;NA;;;NA;NA
NSE;EQ;IGPL;NA;NA;NA;233.20;3.0;0.0;BUY;LIMIT;NA;CLI;CNC;DAY                                                                                                 ;134;NA;;;NA;NA
NSE;EQ;DISHMAN;NA;NA;NA;236.40;3.0;0.0;BUY;LIMIT;NA;CLI;CNC;DAY                                                                                                 ;134;NA;;;NA;NA
NSE;EQ;GHCL;NA;NA;NA;238.85;3.0;0.0;BUY;LIMIT;NA;CLI;CNC;DAY                                                                                                 ;134;NA;;;NA;NA
NSE;EQ;UFLEX;NA;NA;NA;261.80;2.0;0.0;BUY;LIMIT;NA;CLI;CNC;DAY                                                                                                 ;134;NA;;;NA;NA
NSE;EQ;IOC;NA;NA;NA;294.95;2.0;0.0;BUY;LIMIT;NA;CLI;CNC;DAY                                                                                                 ;134;NA;;;NA;NA
NSE;EQ;SESHAPAPER;NA;NA;NA;723.20;1.0;0.0;BUY;LIMIT;NA;CLI;CNC;DAY                                                                                                 ;134;NA;;;NA;NA
