Segment;Instrument;Symbol;Option Type;Stricke Price;Expiry Date;Price;Qty;Disclosed Qty;Bye/Sell;Order Order;Triger Price;CLI/PRO;Product Type;Validity;Client Code;Remark;Validity Date;Participant Code;Validity Time;Market Participant
BSE;EQ;NESCO;NA;NA;NA;1860.10;1.0;0.0;BUY;LIMIT;NA;CLI;CNC;DAY                                                                                                 ;19;NA;;;NA;NA
BSE;EQ;ZYDUSWELL;NA;NA;NA;895.15;6.0;0.0;BUY;LIMIT;NA;CLI;CNC;DAY                                                                                                 ;19;NA;;;NA;NA
BSE;EQ;KIRLOSENG;NA;NA;NA;353.55;24.0;0.0;BUY;LIMIT;NA;CLI;CNC;DAY                                                                                                 ;19;NA;;;NA;NA
BSE;EQ;PTC;NA;NA;NA;75.25;74.0;0.0;BUY;LIMIT;NA;CLI;CNC;DAY                                                                                                 ;19;NA;;;NA;NA
BSE;EQ;DRREDDY;NA;NA;NA;3121.15;1.0;0.0;SELL;LIMIT;NA;CLI;CNC;DAY                                                                                                 ;19;NA;;;NA;NA
BSE;EQ;TCS;NA;NA;NA;2386.35;1.0;0.0;SELL;LIMIT;NA;CLI;CNC;DAY                                                                                                 ;19;NA;;;NA;NA
BSE;EQ;LUPIN;NA;NA;NA;1491.20;2.0;0.0;SELL;LIMIT;NA;CLI;CNC;DAY                                                                                                 ;19;NA;;;NA;NA
BSE;EQ;INFY;NA;NA;NA;1041.15;4.0;0.0;SELL;LIMIT;NA;CLI;CNC;DAY                                                                                                 ;19;NA;;;NA;NA
BSE;EQ;AUROPHARMA;NA;NA;NA;865.15;3.0;0.0;SELL;LIMIT;NA;CLI;CNC;DAY                                                                                                 ;19;NA;;;NA;NA
BSE;EQ;HCLTECH;NA;NA;NA;815.65;4.0;0.0;SELL;LIMIT;NA;CLI;CNC;DAY                                                                                                 ;19;NA;;;NA;NA
BSE;EQ;SUNPHARMA;NA;NA;NA;759.60;4.0;0.0;SELL;LIMIT;NA;CLI;CNC;DAY                                                                                                 ;19;NA;;;NA;NA
BSE;EQ;WIPRO;NA;NA;NA;478.95;7.0;0.0;SELL;LIMIT;NA;CLI;CNC;DAY                                                                                                 ;19;NA;;;NA;NA
BSE;EQ;TECHM;NA;NA;NA;425.30;7.0;0.0;SELL;LIMIT;NA;CLI;CNC;DAY                                                                                                 ;19;NA;;;NA;NA
BSE;EQ;DWARKESH;NA;NA;NA;257.05;1.0;0.0;BUY;LIMIT;NA;CLI;CNC;DAY                                                                                                 ;17;NA;;;NA;NA
BSE;EQ;DHAMPURSUG;NA;NA;NA;130.75;1.0;0.0;BUY;LIMIT;NA;CLI;CNC;DAY                                                                                                 ;17;NA;;;NA;NA
BSE;EQ;DALMIASUG;NA;NA;NA;118.50;3.0;0.0;BUY;LIMIT;NA;CLI;CNC;DAY                                                                                                 ;17;NA;;;NA;NA
BSE;EQ;BALRAMCHIN;NA;NA;NA;110.25;6.0;0.0;BUY;LIMIT;NA;CLI;CNC;DAY                                                                                                 ;17;NA;;;NA;NA
BSE;EQ;OUDHSUG;NA;NA;NA;107.25;0.0;0.0;BUY;LIMIT;NA;CLI;CNC;DAY                                                                                                 ;17;NA;;;NA;NA
BSE;EQ;MAWANASUG;NA;NA;NA;58.40;0.0;0.0;BUY;LIMIT;NA;CLI;CNC;DAY                                                                                                 ;17;NA;;;NA;NA
