Segment;Instrument;Symbol;Option Type;Stricke Price;Expiry Date;Price;Qty;Disclosed Qty;Bye/Sell;Order Order;Triger Price;CLI/PRO;Product Type;Validity;Client Code;Remark;Validity Date;Participant Code;Validity Time;Market Participant
BSE;EQ;POKARNA;NA;NA;NA;882.60;1.0;0.0;BUY;LIMIT;NA;CLI;CNC;DAY                                                                                                 ;11;NA;;;NA;NA
BSE;EQ;DWARKESH;NA;NA;NA;257.70;2.0;0.0;BUY;LIMIT;NA;CLI;CNC;DAY                                                                                                 ;11;NA;;;NA;NA
BSE;EQ;JUBLINDS;NA;NA;NA;243.80;7.0;0.0;BUY;LIMIT;NA;CLI;CNC;DAY                                                                                                 ;11;NA;;;NA;NA
BSE;EQ;MANGALAM;NA;NA;NA;150.90;1.0;0.0;BUY;LIMIT;NA;CLI;CNC;DAY                                                                                                 ;11;NA;;;NA;NA
NSE;EQ;STCINDIA;NA;NA;NA;126.50;9.0;0.0;BUY;LIMIT;NA;CLI;CNC;DAY                                                                                                 ;11;NA;;;NA;NA
BSE;EQ;PINCON;NA;NA;NA;73.60;5.0;0.0;BUY;LIMIT;NA;CLI;CNC;DAY                                                                                                 ;11;NA;;;NA;NA
BSE;EQ;NITINSPIN;NA;NA;NA;71.40;5.0;0.0;BUY;LIMIT;NA;CLI;CNC;DAY                                                                                                 ;11;NA;;;NA;NA
BSE;EQ;EMAMIINFRA;NA;NA;NA;69.70;5.0;0.0;BUY;LIMIT;NA;CLI;CNC;DAY                                                                                                 ;11;NA;;;NA;NA
BSE;EQ;MARALOVER;NA;NA;NA;30.25;12.0;0.0;BUY;LIMIT;NA;CLI;CNC;DAY                                                                                                 ;11;NA;;;NA;NA
BSE;EQ;KMSUGAR;NA;NA;NA;26.26;28.0;0.0;BUY;LIMIT;NA;CLI;CNC;DAY                                                                                                 ;11;NA;;;NA;NA
BSE;EQ;IBVENTURES;NA;NA;NA;23.40;12.0;0.0;BUY;LIMIT;NA;CLI;CNC;DAY                                                                                                 ;11;NA;;;NA;NA
BSE;EQ;IBVENTURES;NA;NA;NA;23.70;13.0;0.0;BUY;LIMIT;NA;CLI;CNC;DAY                                                                                                 ;32;NA;;;NA;NA
BSE;EQ;KMSUGAR;NA;NA;NA;24.95;31.0;0.0;BUY;LIMIT;NA;CLI;CNC;DAY                                                                                                 ;32;NA;;;NA;NA
BSE;EQ;MARALOVER;NA;NA;NA;31.60;12.0;0.0;BUY;LIMIT;NA;CLI;CNC;DAY                                                                                                 ;32;NA;;;NA;NA
BSE;EQ;EMAMIINFRA;NA;NA;NA;71.85;5.0;0.0;BUY;LIMIT;NA;CLI;CNC;DAY                                                                                                 ;32;NA;;;NA;NA
BSE;EQ;NITINSPIN;NA;NA;NA;73.10;5.0;0.0;BUY;LIMIT;NA;CLI;CNC;DAY                                                                                                 ;32;NA;;;NA;NA
BSE;EQ;PINCON;NA;NA;NA;73.75;6.0;0.0;BUY;LIMIT;NA;CLI;CNC;DAY                                                                                                 ;32;NA;;;NA;NA
NSE;EQ;STCINDIA;NA;NA;NA;128.55;9.0;0.0;BUY;LIMIT;NA;CLI;CNC;DAY                                                                                                 ;32;NA;;;NA;NA
BSE;EQ;MANGALAM;NA;NA;NA;156.50;2.0;0.0;BUY;LIMIT;NA;CLI;CNC;DAY                                                                                                 ;32;NA;;;NA;NA
BSE;EQ;DWARKESH;NA;NA;NA;257.10;2.0;0.0;BUY;LIMIT;NA;CLI;CNC;DAY                                                                                                 ;32;NA;;;NA;NA
BSE;EQ;JUBLINDS;NA;NA;NA;268.35;7.0;0.0;BUY;LIMIT;NA;CLI;CNC;DAY                                                                                                 ;32;NA;;;NA;NA
BSE;EQ;POKARNA;NA;NA;NA;944.10;1.0;0.0;BUY;LIMIT;NA;CLI;CNC;DAY                                                                                                 ;32;NA;;;NA;NA
