Segment;Instrument;Symbol;Option Type;Stricke Price;Expiry Date;Price;Qty;Disclosed Qty;Bye/Sell;Order Order;Triger Price;CLI/PRO;Product Type;Validity;Client Code;Remark;Validity Date;Participant Code;Validity Time;Market Participant
BSE;EQ;MARICO;NA;NA;NA;227.20;31.0;0.0;SELL;LIMIT;NA;CLI;CNC;DAY                                                                                                 ;45;NA;;;NA;NA
BSE;EQ;DABUR;NA;NA;NA;259.00;29.0;0.0;SELL;LIMIT;NA;CLI;CNC;DAY                                                                                                 ;45;NA;;;NA;NA
BSE;EQ;JYOTHYLAB;NA;NA;NA;279.80;27.0;0.0;SELL;LIMIT;NA;CLI;CNC;DAY                                                                                                 ;45;NA;;;NA;NA
BSE;EQ;HINDUNILVR;NA;NA;NA;339.10;8.0;0.0;SELL;LIMIT;NA;CLI;CNC;DAY                                                                                                 ;45;NA;;;NA;NA
NSE;EQ;COLPAL;NA;NA;NA;833.70;29.0;0.0;SELL;LIMIT;NA;CLI;CNC;DAY                                                                                                 ;45;NA;;;NA;NA
BSE;EQ;GODREJCP;NA;NA;NA;921.20;18.0;0.0;SELL;LIMIT;NA;CLI;CNC;DAY                                                                                                 ;45;NA;;;NA;NA
BSE;EQ;BRITANNIA;NA;NA;NA;1566.80;3.0;0.0;SELL;LIMIT;NA;CLI;CNC;DAY                                                                                                 ;45;NA;;;NA;NA
BSE;EQ;GSKCONS;NA;NA;NA;2999.85;3.0;0.0;SELL;LIMIT;NA;CLI;CNC;DAY                                                                                                 ;45;NA;;;NA;NA
NSE;EQ;PGHH;NA;NA;NA;5016.30;1.0;0.0;SELL;LIMIT;NA;CLI;CNC;DAY                                                                                                 ;45;NA;;;NA;NA
NSE;EQ;ITC;NA;NA;NA;6864.85;1.0;0.0;SELL;LIMIT;NA;CLI;CNC;DAY                                                                                                 ;45;NA;;;NA;NA
