Segment;Instrument;Symbol;Option Type;Stricke Price;Expiry Date;Price;Qty;Disclosed Qty;Bye/Sell;Order Order;Triger Price;CLI/PRO;Product Type;Validity;Client Code;Remark;Validity Date;Participant Code;Validity Time;Market Participant
BSE;EQ;SHREERAMA;NA;NA;NA;15.26;6.0;0.0;BUY;LIMIT;NA;CLI;CNC;DAY                                                                                                 ;17;NA;;;NA;NA
BSE;EQ;AMDIND;NA;NA;NA;30.95;3.0;0.0;BUY;LIMIT;NA;CLI;CNC;DAY                                                                                                 ;17;NA;;;NA;NA
NSE;EQ;;NA;NA;NA;35.30;2.0;0.0;BUY;LIMIT;NA;CLI;CNC;DAY                                                                                                 ;17;NA;;;NA;NA
NSE;EQ;;NA;NA;NA;57.45;1.0;0.0;BUY;LIMIT;NA;CLI;CNC;DAY                                                                                                 ;17;NA;;;NA;NA
NSE;EQ;;NA;NA;NA;94.00;1.0;0.0;BUY;LIMIT;NA;CLI;CNC;DAY                                                                                                 ;17;NA;;;NA;NA
